# Blender MTL File: 'None'
# Material Count: 2

newmtl None
Ns 0
Ka 0.000000 0.000000 0.000000
Kd 0.8 0.8 0.8
Ks 0.8 0.8 0.8
d 1
illum 2

newmtl None_Bookmap_AlbedoTransparency.png
Ns 0
Ka 0.000000 0.000000 0.000000
Kd 0.8 0.8 0.8
Ks 0.8 0.8 0.8
d 1
illum 2
map_Kd G:\_CODEX\Unity_Proj\codex\Codex\Assets\Codex\Models\_Props\Book\Bookmap_AlbedoTransparency.png
