%YAML 1.1
%TAG !u! tag:unity3d.com,2011:
--- !u!1001 &100100000
Prefab:
  m_ObjectHideFlags: 1
  serializedVersion: 2
  m_Modification:
    m_TransformParent: {fileID: 0}
    m_Modifications: []
    m_RemovedComponents: []
  m_ParentPrefab: {fileID: 0}
  m_RootGameObject: {fileID: 1834027517116144}
  m_IsPrefabParent: 1
--- !u!1 &1834027517116144
GameObject:
  m_ObjectHideFlags: 0
  m_PrefabParentObject: {fileID: 0}
  m_PrefabInternal: {fileID: 100100000}
  serializedVersion: 5
  m_Component:
  - component: {fileID: 224841454626715376}
  - component: {fileID: 114421876405242428}
  m_Layer: 5
  m_Name: UI Manager
  m_TagString: Untagged
  m_Icon: {fileID: 0}
  m_NavMeshLayer: 0
  m_StaticEditorFlags: 0
  m_IsActive: 1
--- !u!114 &114421876405242428
MonoBehaviour:
  m_ObjectHideFlags: 1
  m_PrefabParentObject: {fileID: 0}
  m_PrefabInternal: {fileID: 100100000}
  m_GameObject: {fileID: 1834027517116144}
  m_Enabled: 1
  m_EditorHideFlags: 0
  m_Script: {fileID: 11500000, guid: 80aa2ccf1f77af441b9281b3b454349a, type: 3}
  m_Name: 
  m_EditorClassIdentifier: 
  importantTextUI: {fileID: 0}
  notificationTextUI: {fileID: 0}
  helperTextUI: {fileID: 0}
  endingPanel: {fileID: 0}
  chapterCompletedText: Chapter completed
  firstSymbol: {fileID: 4900000, guid: 88b9a74797dc3b842841048671663a57, type: 3}
  firstWheel: {fileID: 4900000, guid: c8df9a7404eafd945a8d3d5489f0075e, type: 3}
  first3DObject: {fileID: 4900000, guid: faf0e2b0589c7f6448c6634a91b4b2bd, type: 3}
  mask: {fileID: 4900000, guid: 378bddb9d1ac5b448be772b3b75a13a5, type: 3}
  box: {fileID: 4900000, guid: d2482f03cd28593408fb52be856981d1, type: 3}
  dagger: {fileID: 4900000, guid: b37a8f415ae05e54fb94abc741c821e2, type: 3}
  torch: {fileID: 4900000, guid: 35aaf3737e95daa46b1f3461d1ce0bf1, type: 3}
  book: {fileID: 4900000, guid: 41bc723e84b03234da0743f95aae6144, type: 3}
--- !u!224 &224841454626715376
RectTransform:
  m_ObjectHideFlags: 1
  m_PrefabParentObject: {fileID: 0}
  m_PrefabInternal: {fileID: 100100000}
  m_GameObject: {fileID: 1834027517116144}
  m_LocalRotation: {x: -0, y: -0, z: -0, w: 1}
  m_LocalPosition: {x: 0, y: 0, z: 0}
  m_LocalScale: {x: 1, y: 1, z: 1}
  m_Children: []
  m_Father: {fileID: 0}
  m_RootOrder: 0
  m_LocalEulerAnglesHint: {x: 0, y: 0, z: 0}
  m_AnchorMin: {x: 0.5, y: 0.5}
  m_AnchorMax: {x: 0.5, y: 0.5}
  m_AnchoredPosition: {x: 720, y: 1280}
  m_SizeDelta: {x: 100, y: 100}
  m_Pivot: {x: 0.5, y: 0.5}
